<?xml version="1.0" encoding="UTF-8"?>
<svg width="208px" height="143px" viewBox="0 0 208 143" version="1.1" xmlns="http://www.w3.org/2000/svg" xmlns:xlink="http://www.w3.org/1999/xlink">
    <!-- Generator: Sketch 54.1 (76490) - https://sketchapp.com -->
    <title>undraw_maker_launch_crhe</title>
    <desc>Created with Sketch.</desc>
    <defs>
        <linearGradient x1="49.9996956%" y1="99.9906158%" x2="49.9996956%" y2="-0.00256609128%" id="linearGradient-1">
            <stop stop-color="#808080" stop-opacity="0.25" offset="0%"></stop>
            <stop stop-color="#808080" stop-opacity="0.12" offset="54%"></stop>
            <stop stop-color="#808080" stop-opacity="0.1" offset="100%"></stop>
        </linearGradient>
    </defs>
    <g id="JOGL---Platform-MVP" stroke="none" stroke-width="1" fill="none" fill-rule="evenodd">
        <g id="1_JOGL_Landing_Page" transform="translate(-224.000000, -888.000000)">
            <g id="UI/Card/Image-Header" transform="translate(208.056940, 864.000000)">
                <g id="undraw_maker_launch_crhe" transform="translate(15.988612, 24.000000)">
                    <path d="M1.59371429,74.9628181 C5.26106519,68.9825511 13.5544445,70.0249663 19.4356675,73.1467638 C25.3168904,76.2685612 31.1853795,80.9285567 37.6578172,80.0332419 C43.1151846,79.2777633 47.5902259,74.5269651 50.0078396,69.046113 C52.4254534,63.565261 53.1349112,57.385228 53.815263,51.3323188 C54.6702505,43.7278938 55.5246317,36.1186261 56.3784065,28.5045155 C56.6912956,25.7205041 57.0605774,22.7821282 58.628661,20.5792543 C60.7006415,17.6735673 64.4989692,16.7800685 67.7479219,17.6535907 C70.9968747,18.5271128 73.7673982,20.8698229 76.1377148,23.4831252 C83.7307319,31.8515037 88.0329566,43.1637063 94.6709345,52.476433 C96.0225425,54.3723938 97.5487862,56.2465619 99.5680121,57.1618533 C102.478608,58.4784927 105.820336,57.5468568 108.663624,56.0813009 C117.941149,51.306894 124.173463,41.5637624 130.298448,32.4725943 C133.278171,28.054134 136.910958,23.3287606 141.868067,22.8475061 C147.083491,22.3299307 151.611287,26.7665515 154.676508,31.4646841 C164.514322,46.5815206 166.622685,67.2191623 178.507012,80.403717 C179.982321,82.0381659 181.610435,83.5491232 183.485951,84.5642975 C184.104488,84.8979655 184.749409,85.1804015 185.414221,85.4087628 C195.783219,88.9918381 199.239551,103.374989 191.570131,111.90318 C191.404591,112.084785 191.235412,112.266391 191.064415,112.447996 C189.925644,113.648408 188.635886,114.783442 187.096909,115.141205 C185.665259,115.471727 184.186313,115.090355 182.767397,114.678111 C173.697253,112.035752 164.736255,107.996847 155.358679,108.192981 C146.233961,108.374586 137.578576,112.582384 128.555729,114.096974 C122.488955,115.11578 116.316673,114.912382 110.182592,114.692639 C89.7526337,113.958953 69.3269202,113.105408 48.9054514,112.132003 C38.769301,111.667093 28.6295124,111.223976 18.4951811,110.7064 C10.6875075,110.30142 5.71402668,109.409737 4.80810369,100.36397 C4.0149663,92.4423414 -3.10871728,82.6338318 1.59371429,74.9628181 Z" id="Path" fill="#2987CD" fill-rule="nonzero" opacity="0.1"></path>
                    <ellipse id="Oval" fill="#30374E" fill-rule="nonzero" cx="144.197295" cy="136.066667" rx="48.9318149" ry="6.93333333"></ellipse>
                    <path d="M26.8475445,106.700442 C26.8475445,106.700442 29.4635302,106.083516 31.1777936,107.907559 C31.1777936,107.907559 30.0759087,108.935768 27.4837047,107.796512 L26.8475445,106.700442 Z" id="Path" fill="#2987CD" fill-rule="nonzero"></path>
                    <path d="M26.9311494,106.6 C26.9311494,106.6 25.2836447,108.738679 26.3286093,110.933333 C26.3286093,110.933333 27.7527949,110.306013 27.712766,107.565108 L26.9311494,106.6 Z" id="Path" fill="#2987CD" fill-rule="nonzero"></path>
                    <path d="M25.1154448,103.058625 C25.1154448,103.058625 26.0180612,101.019961 30.3117438,103.484435 C30.3117438,103.484435 29.8498505,104.846222 28.0253722,104.866308 C26.200894,104.886393 25.6543203,104.060885 25.1154448,103.058625 Z" id="Path" fill="#2987CD" fill-rule="nonzero"></path>
                    <path d="M25.3352776,103.133473 C25.3352776,103.133473 23.2717018,103.043187 23.3880897,107.460221 C23.3880897,107.460221 24.7053051,107.633846 25.52741,106.178864 C26.349515,104.723882 25.9135223,103.972084 25.3352776,103.133473 Z" id="Path" fill="#2987CD" fill-rule="nonzero"></path>
                    <path d="M23.3833452,99.2276073 C23.3833452,99.2276073 24.2959372,95.5450465 28.5796441,97.7945746 C28.5796441,97.7945746 27.8313187,101.166784 23.8706693,100.427356 L23.3833452,99.2276073 Z" id="Path" fill="#2987CD" fill-rule="nonzero"></path>
                    <path d="M22.5172954,95.4624247 C22.5172954,95.4624247 24.4914305,91.7822783 28.5796441,94.768362 C28.5796441,94.768362 27.4246445,98.1720938 22.9277961,96.695193 L22.5172954,95.4624247 Z" id="Path" fill="#2987CD" fill-rule="nonzero"></path>
                    <path d="M21.6512456,90.7002729 C21.6512456,90.7002729 23.8796351,87.7610669 27.7135943,90.2997085 C27.7135943,90.2997085 25.5857734,92.8903716 21.6988833,91.4094973 L21.6512456,90.7002729 Z" id="Path" fill="#2987CD" fill-rule="nonzero"></path>
                    <path d="M20.7851957,86.4279427 C20.7851957,86.4279427 23.0881302,83.453072 26.8475445,85.8973174 C26.8475445,85.8973174 24.1980869,88.5639201 20.8321207,87.0882765 L20.7851957,86.4279427 Z" id="Path" fill="#2987CD" fill-rule="nonzero"></path>
                    <path d="M20.7851957,83.0785914 C20.7851957,83.0785914 23.2268461,78.9123381 26.8475445,81.3828727 C26.8475445,81.3828727 24.1700845,85.0017621 20.8371852,83.8349153 L20.7851957,83.0785914 Z" id="Path" fill="#2987CD" fill-rule="nonzero"></path>
                    <path d="M20.7851957,77.7236453 C20.7851957,77.7236453 23.3501061,73.5529757 26.8475445,76.3867967 C26.8475445,76.3867967 23.7146897,80.0640612 20.8255015,78.462822 L20.7851957,77.7236453 Z" id="Path" fill="#2987CD" fill-rule="nonzero"></path>
                    <path d="M21.7314825,74.2583933 C21.7314825,74.2583933 24.7626569,69.9425925 27.7135943,71.3481137 C27.7135943,71.3481137 24.561173,75.9251713 21.6512456,75.3500012 L21.7314825,74.2583933 Z" id="Path" fill="#2987CD" fill-rule="nonzero"></path>
                    <path d="M22.7357421,70.2357936 C22.7357421,70.2357936 26.2633864,65.6686264 28.5796441,66.9649992 C28.5796441,66.9649992 25.9961953,70.4940142 22.5172954,71.0666667 L22.7357421,70.2357936 Z" id="Path" fill="#2987CD" fill-rule="nonzero"></path>
                    <path d="M23.7679655,65.5801126 C23.7679655,65.5801126 26.9126945,61.7623073 29.445694,62.4929192 C29.445694,62.4929192 26.7991399,66.4127953 23.3833452,66.7333333 L23.7679655,65.5801126 Z" id="Path" fill="#2987CD" fill-rule="nonzero"></path>
                    <path d="M25.2250487,61.5624222 C25.2250487,61.5624222 28.6712801,57.5789933 30.3117438,58.1165628 C30.3117438,58.1165628 27.9130373,62.4403235 25.1154448,62.3997157 L25.2250487,61.5624222 Z" id="Path" fill="#2987CD" fill-rule="nonzero"></path>
                    <path d="M25.9814947,56.8020203 C25.9814947,56.8020203 29.2196221,52.6770379 31.1777936,52.8734657 C31.1777936,52.8734657 29.3041475,56.4928602 26.0136948,57.2 L25.9814947,56.8020203 Z" id="Path" fill="#2987CD" fill-rule="nonzero"></path>
                    <path d="M27.7623964,51.8578667 C27.7623964,51.8578667 30.4634057,48.6234667 32.0438434,48.5333333 C32.0438434,48.5333333 30.0335717,52.7522667 27.7135943,52.8666667 L27.7623964,51.8578667 Z" id="Path" fill="#2987CD" fill-rule="nonzero"></path>
                    <path d="M27.9733332,48.1885701 L30.2744001,41.6 C30.2744001,41.6 30.8231442,47.3861945 27.7135943,49.4 L27.9733332,48.1885701 Z" id="Path" fill="#2987CD" fill-rule="nonzero"></path>
                    <path d="M28.7643778,40.8210947 C28.7643778,40.8210947 28.8254927,35.1082566 28.5796441,34.6666667 C28.5796441,34.6666667 30.311696,39.2569757 28.8768848,43.3333333 L28.7643778,40.8210947 Z" id="Path" fill="#2987CD" fill-rule="nonzero"></path>
                    <path d="M23.8202192,99.935466 C23.8202192,99.935466 20.6908925,98.3711248 19.0530961,102.790116 C19.0530961,102.790116 21.8437011,104.292755 24.249395,101.009816 L23.8202192,99.935466 Z" id="Path" fill="#2987CD" fill-rule="nonzero"></path>
                    <path d="M22.1369495,95.5028832 C22.1369495,95.5028832 18.6645329,94.2668648 17.3209964,98.4693274 C17.3209964,98.4693274 20.0450474,99.9873902 22.5172954,96.5182433 L22.1369495,95.5028832 Z" id="Path" fill="#2987CD" fill-rule="nonzero"></path>
                    <path d="M20.7379294,91.1979805 C20.7379294,91.1979805 18.148783,88.5499385 14.722847,91.6063153 C14.722847,91.6063153 17.1631918,93.9178754 20.7851957,91.9200145 L20.7379294,91.1979805 Z" id="Path" fill="#2987CD" fill-rule="nonzero"></path>
                    <path d="M20.7334875,86.0893747 C20.7334875,86.0893747 18.0589218,83.3369764 14.722847,86.3261401 C14.722847,86.3261401 17.6933979,88.7164266 20.7851957,86.7700754 L20.7334875,86.0893747 Z" id="Path" fill="#2987CD" fill-rule="nonzero"></path>
                    <path d="M20.7851957,82.3564492 C20.7851957,82.3564492 18.6215676,78.2487448 14.722847,80.3139732 C14.722847,80.3139732 17.1721654,83.9246226 20.6728242,83.068778 L20.7851957,82.3564492 Z" id="Path" fill="#2987CD" fill-rule="nonzero"></path>
                    <path d="M20.7851957,77.9753263 C20.7851957,77.9753263 18.6427624,73.8319764 14.722847,76.0562099 C14.722847,76.0562099 17.4949628,79.802561 20.6490482,78.6445034 L20.7851957,77.9753263 Z" id="Path" fill="#2987CD" fill-rule="nonzero"></path>
                    <path d="M21.6512456,73.6089416 C21.6512456,73.6089416 20.6141923,68.691768 17.3209964,68.4666667 C17.3209964,68.4666667 18.3654047,73.656914 21.2761412,74.5333333 L21.6512456,73.6089416 Z" id="Path" fill="#2987CD" fill-rule="nonzero"></path>
                    <path d="M22.5172954,70.1913683 C22.5172954,70.1913683 21.828584,64.1613279 19.0530961,64.1333333 C19.0530961,64.1333333 19.4565646,68.7188515 22.2639547,71.0666667 L22.5172954,70.1913683 Z" id="Path" fill="#2987CD" fill-rule="nonzero"></path>
                    <path d="M24.249395,64.7253453 C24.249395,64.7253453 23.1984582,60.1974244 20.7851957,59.8 C20.7851957,59.8 21.3775112,64.2158268 24.090316,65.8666667 L24.249395,64.7253453 Z" id="Path" fill="#2987CD" fill-rule="nonzero"></path>
                    <path d="M25.1154448,60.8886 C25.1154448,60.8886 24.8114587,56.075391 23.4587202,55.4666667 C23.4587202,55.4666667 22.9100252,59.8872056 24.7734604,61.5333333 L25.1154448,60.8886 Z" id="Path" fill="#2987CD" fill-rule="nonzero"></path>
                    <path d="M26.8475445,57.7164626 C26.8475445,57.7164626 26.1856878,52.6137415 24.2610507,52 C24.2610507,52 23.9458809,56.0839456 26.5933075,58.0666667 L26.8475445,57.7164626 Z" id="Path" fill="#2987CD" fill-rule="nonzero"></path>
                    <path d="M27.7135943,52.8385181 C27.7135943,52.8385181 27.4115426,48.5885975 26.1757093,47.6666667 C26.1757093,47.6666667 25.3321748,52.4010528 27.1610608,53.7333333 L27.7135943,52.8385181 Z" id="Path" fill="#2987CD" fill-rule="nonzero"></path>
                    <path d="M28.4559353,48.9339158 L27.0421206,41.6 C27.0421206,41.6 26.0412041,47.7791175 28.5796441,50.2666667 L28.4559353,48.9339158 Z" id="Path" fill="#2987CD" fill-rule="nonzero"></path>
                    <path d="M28.2181517,41.3049553 C28.2181517,41.3049553 25.0907573,36.9110053 25.115592,36.4 C25.115592,36.4 25.7435543,41.1763349 29.445694,43.3333333 L28.2181517,41.3049553 Z" id="Path" fill="#2987CD" fill-rule="nonzero"></path>
                    <path d="M28.3402207,39.8666667 C28.3402207,39.8666667 24.7975663,33.3973333 23.3833452,32.9333333 C23.3833452,32.9333333 27.865432,34.6097778 28.5796441,39.6533333 L28.3402207,39.8666667 Z" id="Path" fill="#2987CD" fill-rule="nonzero"></path>
                    <path d="M27.8940016,52.8666667 L27.7135943,52.8208295 C29.490606,45.1201816 29.7413721,40.2651064 28.4171827,39.150346 L28.5398596,39 C29.936212,40.180766 29.7161151,44.9771696 27.8940016,52.8666667 Z" id="Path" fill="#444053" fill-rule="nonzero"></path>
                    <path d="M21.9588279,71.0666667 L21.6512456,70.9897753 C21.8675454,70.2995415 22.1017049,69.5967905 22.3517395,68.9047685 C24.534582,62.8750573 26.3483256,57.2816598 27.4615752,53.0007795 L27.7135943,52.8666667 C26.5983603,57.158276 24.8342267,62.9573132 22.6553531,68.9923888 C22.4073028,69.6826227 22.1731433,70.3800092 21.9588279,71.0666667 Z" id="Path" fill="#444053" fill-rule="nonzero"></path>
                    <path d="M30.9009274,111.8 C30.8597717,111.761669 26.7441937,107.808108 23.5826816,100.804502 C21.7302799,96.7050892 20.5552451,92.3452012 20.1012768,87.8869817 C19.5400616,82.314396 20.3070557,75.9989206 21.9719941,70.2 L22.2114459,70.4409372 C18.4700114,83.4570225 21.0534719,94.2316616 23.9381179,100.6311 C27.0678278,107.567171 31.1366378,111.482401 31.1777936,111.520732 L30.9009274,111.8 Z" id="Path" fill="#444053" fill-rule="nonzero"></path>
                    <path d="M35.5080427,91.0510687 C35.5080427,91.0510687 37.0802965,90.7395172 38.1061922,91.6554446 C38.1061922,91.6554446 37.4438802,92.1661848 35.8912796,91.5992632 L35.5080427,91.0510687 Z" id="Path" fill="#2987CD" fill-rule="nonzero"></path>
                    <path d="M35.1128545,91 C35.1128545,91 34.2951619,92.2837141 34.8148818,93.6 C34.8148818,93.6 35.5217007,93.2168018 35.5078415,91.5786293 L35.1128545,91 Z" id="Path" fill="#2987CD" fill-rule="nonzero"></path>
                    <path d="M33.7759431,88.9273074 C33.7759431,88.9273074 34.3773961,87.5685776 37.2401423,89.2132391 C37.2401423,89.2132391 36.9319774,90.1197978 35.7141944,90.133097 C34.4964115,90.1463961 34.1393652,89.5966979 33.7759431,88.9273074 Z" id="Path" fill="#2987CD" fill-rule="nonzero"></path>
                    <path d="M34.212571,89.266747 C34.212571,89.266747 32.8356367,89.2133076 32.9130383,91.862866 C32.9130383,91.862866 33.7909358,91.966297 34.3388578,91.0940286 C34.8867799,90.2217602 34.5975422,89.7701114 34.212571,89.266747 Z" id="Path" fill="#2987CD" fill-rule="nonzero"></path>
                    <path d="M32.9098932,86.8834003 C32.9098932,86.8834003 33.5271359,85.0397839 36.3740925,86.16251 C36.3740925,86.16251 35.8774836,87.8509109 33.2396255,87.480118 L32.9098932,86.8834003 Z" id="Path" fill="#2987CD" fill-rule="nonzero"></path>
                    <path d="M32.9098932,84.1304705 C32.9098932,84.1304705 34.0369927,82.2925099 36.3740925,83.7829288 C36.3740925,83.7829288 35.7126492,85.4872195 33.1444851,84.7470227 L32.9098932,84.1304705 Z" id="Path" fill="#2987CD" fill-rule="nonzero"></path>
                    <path d="M32.0438434,81.5576347 C32.0438434,81.5576347 33.3181083,79.5946886 35.5080427,81.289525 C35.5080427,81.289525 34.2938217,83.0130874 32.0721975,82.0306568 L32.0438434,81.5576347 Z" id="Path" fill="#2987CD" fill-rule="nonzero"></path>
                    <path d="M32.0438434,78.9961633 C32.0438434,78.9961633 33.3606144,77.012744 35.5080427,78.6433078 C35.5080427,78.6433078 33.9951206,80.4205852 32.071134,79.4363041 L32.0438434,78.9961633 Z" id="Path" fill="#2987CD" fill-rule="nonzero"></path>
                    <path d="M32.0438434,76.6398026 C32.0438434,76.6398026 33.4484858,74.5558895 35.5080427,75.7915382 C35.5080427,75.7915382 33.9769825,77.6029042 32.0719363,77.0164687 L32.0438434,76.6398026 Z" id="Path" fill="#2987CD" fill-rule="nonzero"></path>
                    <path d="M32.0438434,73.9669336 C32.0438434,73.9669336 33.514396,71.8766622 35.5080427,73.2912591 C35.5080427,73.2912591 33.7170517,75.1331661 32.0646286,74.3309956 L32.0438434,73.9669336 Z" id="Path" fill="#2987CD" fill-rule="nonzero"></path>
                    <path d="M32.086028,71.2477729 C32.086028,71.2477729 33.8189714,68.6581677 35.5080427,69.5026042 C35.5080427,69.5026042 33.7042292,72.2490334 32.0438434,71.9032165 L32.086028,71.2477729 Z" id="Path" fill="#2987CD" fill-rule="nonzero"></path>
                    <path d="M33.0344679,68.8347364 C33.0344679,68.8347364 35.0498469,66.09594 36.3740925,66.8717289 C36.3740925,66.8717289 34.8979682,68.9898942 32.9098932,69.3333333 L33.0344679,68.8347364 Z" id="Path" fill="#2987CD" fill-rule="nonzero"></path>
                    <path d="M33.1246736,66.0417542 C33.1246736,66.0417542 34.922593,63.7501203 36.3740925,64.1892464 C36.3740925,64.1892464 34.8619695,66.5413268 32.9098932,66.7333333 L33.1246736,66.0417542 Z" id="Path" fill="#2987CD" fill-rule="nonzero"></path>
                    <path d="M33.8492699,63.6303283 C33.8492699,63.6303283 36.1461847,61.2408194 37.2401423,61.5632592 C37.2401423,61.5632592 35.6428056,64.1562122 33.7759431,64.1331808 L33.8492699,63.6303283 Z" id="Path" fill="#2987CD" fill-rule="nonzero"></path>
                    <path d="M34.6419929,61.2960922 C34.6419929,61.2960922 36.2614672,58.8220057 37.2401423,58.9372371 C37.2401423,58.9372371 36.304742,61.1079938 34.658637,61.5333333 L34.6419929,61.2960922 Z" id="Path" fill="#2987CD" fill-rule="nonzero"></path>
                    <path d="M35.5378423,58.332008 C35.5378423,58.332008 37.1581935,56.3884692 38.1061922,56.3333333 C38.1061922,56.3333333 36.8993098,58.8695825 35.5080427,58.9333333 L35.5378423,58.332008 Z" id="Path" fill="#2987CD" fill-rule="nonzero"></path>
                    <path d="M36.555129,56.3834074 L38.0818703,52 C38.0818703,52 38.4439433,55.8518519 36.3740925,57.2 L36.555129,56.3834074 Z" id="Path" fill="#2987CD" fill-rule="nonzero"></path>
                    <path d="M36.5602308,51.358593 C36.5602308,51.358593 36.6199788,47.9318225 36.3740925,47.6666667 C36.3740925,47.6666667 38.1067867,50.4194995 36.6705349,52.8666667 L36.5602308,51.358593 Z" id="Path" fill="#2987CD" fill-rule="nonzero"></path>
                    <path d="M33.4938007,87.6683165 C33.4938007,87.6683165 31.4106141,86.8843458 30.3117438,89.095083 C30.3117438,89.095083 32.1721864,89.8460127 33.7759431,88.2059822 L33.4938007,87.6683165 Z" id="Path" fill="#2987CD" fill-rule="nonzero"></path>
                    <path d="M32.6574572,84.1936145 C32.6574572,84.1936145 30.340871,83.267403 29.445694,86.4185803 C29.445694,86.4185803 31.2612917,87.5567913 32.9098932,84.9572244 L32.6574572,84.1936145 Z" id="Path" fill="#2987CD" fill-rule="nonzero"></path>
                    <path d="M32.0086886,82.1762734 C32.0086886,82.1762734 30.1620255,80.4122697 27.7135943,82.4467668 C27.7135943,82.4467668 29.4568608,83.9924437 32.0438434,82.6554332 L32.0086886,82.1762734 Z" id="Path" fill="#2987CD" fill-rule="nonzero"></path>
                    <path d="M31.1508086,78.7698663 C31.1508086,78.7698663 29.6210964,76.9358486 27.7135943,78.9292626 C27.7135943,78.9292626 29.4119627,80.5213052 31.1777936,79.22501 L31.1508086,78.7698663 Z" id="Path" fill="#2987CD" fill-rule="nonzero"></path>
                    <path d="M31.1777936,76.5011954 C31.1777936,76.5011954 29.9414794,73.4203407 27.7135943,74.9683671 C27.7135943,74.9683671 29.1136707,77.6757848 31.1130086,77.035297 L31.1777936,76.5011954 Z" id="Path" fill="#2987CD" fill-rule="nonzero"></path>
                    <path d="M32.0438434,73.8668294 C32.0438434,73.8668294 30.8212898,70.7555964 28.5796441,72.4264039 C28.5796441,72.4264039 30.1609324,75.2405087 31.9617449,74.3641961 L32.0438434,73.8668294 Z" id="Path" fill="#2987CD" fill-rule="nonzero"></path>
                    <path d="M32.0438434,71.4064419 C32.0438434,71.4064419 31.4216742,68.5940278 29.445694,68.4666667 C29.445694,68.4666667 30.0715123,71.432612 31.8176001,71.9333333 L32.0438434,71.4064419 Z" id="Path" fill="#2987CD" fill-rule="nonzero"></path>
                    <path d="M32.9098932,68.7856401 C32.9098932,68.7856401 32.5696594,65.019285 31.1777936,65 C31.1777936,65 31.3788409,67.8657469 32.7768927,69.3333333 L32.9098932,68.7856401 Z" id="Path" fill="#2987CD" fill-rule="nonzero"></path>
                    <path d="M33.7759431,66.7871237 C33.7759431,66.7871237 32.9883068,63.5516752 31.1777936,63.2666667 C31.1777936,63.2666667 31.6230706,66.419824 33.6583227,67.6 L33.7759431,66.7871237 Z" id="Path" fill="#2987CD" fill-rule="nonzero"></path>
                    <path d="M34.6419929,63.6734611 C34.6419929,63.6734611 34.4872119,60.2294842 33.8139775,59.8 C33.8139775,59.8 33.5383919,62.9583294 34.4708529,64.1333333 L34.6419929,63.6734611 Z" id="Path" fill="#2987CD" fill-rule="nonzero"></path>
                    <path d="M35.5080427,61.3327547 C35.5080427,61.3327547 35.0677074,58.4176792 33.7837822,58.0666667 C33.7837822,58.0666667 33.5728848,60.4067502 35.3388612,61.5333333 L35.5080427,61.3327547 Z" id="Path" fill="#2987CD" fill-rule="nonzero"></path>
                    <path d="M35.5080427,58.4224741 C35.5080427,58.4224741 35.354444,55.9946115 34.7400491,55.4666667 C34.7400491,55.4666667 34.3145807,58.1730245 35.236173,58.9333333 L35.5080427,58.4224741 Z" id="Path" fill="#2987CD" fill-rule="nonzero"></path>
                    <path d="M35.4468832,56.399711 L34.7395605,52 C34.7395605,52 34.2383187,55.7083815 35.5080427,57.2 L35.4468832,56.399711 Z" id="Path" fill="#2987CD" fill-rule="nonzero"></path>
                    <path d="M35.6378258,51.5995576 C35.6378258,51.5995576 33.7619308,48.8550532 33.7760221,48.5333333 C33.7760221,48.5333333 34.151201,51.5186783 36.3740925,52.8666667 L35.6378258,51.5995576 Z" id="Path" fill="#2987CD" fill-rule="nonzero"></path>
                    <path d="M36.2549268,51.1333333 C36.2549268,51.1333333 34.4825457,47.0852088 33.7759431,46.8 C33.7759431,46.8 36.0182736,47.8488323 36.3740925,51.0063694 L36.2549268,51.1333333 Z" id="Path" fill="#2987CD" fill-rule="nonzero"></path>
                    <path d="M35.6016401,58.9333333 L35.5080427,58.9077428 C36.3994465,54.5761155 36.5183004,51.8447507 35.8586615,51.2186352 L35.9195741,51.1333333 C36.6193261,51.7986877 36.5093863,54.4976378 35.6016401,58.9333333 Z" id="Path" fill="#444053" fill-rule="nonzero"></path>
                    <path d="M32.2201481,70.2 L32.0438434,70.1505366 C32.1676318,69.7236856 32.3026737,69.2895068 32.4452179,68.8681518 C33.6887285,65.132748 34.7278007,61.668477 35.3636229,59.0176043 L35.5080427,58.9333333 C34.8703449,61.5897019 33.8631576,65.1840434 32.6177714,68.9231111 C32.4752272,69.3462981 32.3420609,69.7731491 32.2201481,70.2 Z" id="Path" fill="#444053" fill-rule="nonzero"></path>
                    <path d="M37.9330032,94.4666667 C37.908262,94.4429543 35.3770393,92.0552967 33.4319945,87.8235431 C32.2935459,85.3469187 31.5709295,82.7133193 31.2909226,80.0203353 C30.9426416,76.6531727 31.4184354,72.8372983 32.4442467,69.3333333 L32.5907911,69.4792559 C30.2898526,77.3426567 31.8790037,83.852626 33.6527628,87.7195733 C35.5787758,91.9148463 38.0795477,94.2733193 38.1061922,94.2970317 L37.9330032,94.4666667 Z" id="Path" fill="#444053" fill-rule="nonzero"></path>
                    <path d="M43.0517551,103.499379 C42.5767802,103.582332 42.111676,103.712818 41.6636979,103.888801 C31.680791,107.808496 31.8473578,133.466667 31.8473578,133.466667 L28.9083782,133.466667 C28.9083782,133.466667 27.9830067,122.45549 23.9502381,106.745774 C20.3172298,92.6119434 35.2175606,79.9448138 38.2435251,77.5427722 C38.5840618,77.2752722 38.7728376,77.1333333 38.7728376,77.1333333 C53.7805114,82.5561241 43.0517551,103.499379 43.0517551,103.499379 Z" id="Path" fill="#AFC0E0" fill-rule="nonzero"></path>
                    <path d="M40.7043416,77.5755559 C40.3586147,77.4190492 40.001795,77.2698218 39.6227896,77.1333333 C39.6227896,77.1333333 39.4379089,77.2752813 39.0940308,77.5427987 C36.0712315,79.9449954 21.1864869,92.6129435 24.8156949,106.747688 C28.8442452,122.458418 29.7594046,133.466667 29.7594046,133.466667 L31.4103892,133.466667 C31.4103892,133.466667 30.4952298,122.454778 26.4574354,106.744048 C22.8430179,92.6748183 37.5835555,80.0541862 40.7043416,77.5755559 Z" id="Path" fill="#FFFFFF" fill-rule="nonzero" opacity="0.2"></path>
                    <path d="M92.1008466,106.749414 C88.0591723,122.459129 87.1486853,133.466667 87.1486853,133.466667 L84.204407,133.466667 C84.204407,133.466667 84.3894653,106.651148 73.706047,103.657695 C73.4746591,103.589409 73.2391818,103.53532 73.0009747,103.495739 C73.0009747,103.495739 62.2675906,82.5524846 77.2795237,77.1333333 C77.2795237,77.1333333 77.4312715,77.2443368 77.7051579,77.4608845 C80.4865848,79.6500178 95.7742548,92.4518073 92.1008466,106.749414 Z" id="Path" fill="#AFC0E0" fill-rule="nonzero"></path>
                    <path d="M42.9918967,103.608906 C42.5092686,103.692216 42.0366702,103.823262 41.5814739,104 C39.7475284,95.2777907 38.585876,86.4347491 38.1061922,77.5445299 C38.4522159,77.2758815 38.6440334,77.1333333 38.6440334,77.1333333 C53.8935244,82.5757477 42.9918967,103.608906 42.9918967,103.608906 Z" id="Path" fill="#000000" fill-rule="nonzero" opacity="0.1"></path>
                    <path d="M77.944484,77.4580753 C77.3781283,86.3983565 76.1402577,95.2746442 74.2429965,104 C74.028829,103.930834 73.8108765,103.876047 73.5903973,103.835956 C73.5903973,103.835956 63.6558173,82.6226915 77.5505265,77.133674 C77.5453879,77.1263012 77.6858423,77.2387358 77.944484,77.4580753 Z" id="Path" fill="#000000" fill-rule="nonzero" opacity="0.1"></path>
                    <path d="M72.7269869,107.683687 C71.7012054,111.703917 70.4989651,115.828474 69.120266,120.057358 C69.120266,120.057358 62.5772456,126.828303 46.7728841,120.057358 C46.7728841,120.057358 45.1939134,115.63559 43.4574119,108.118585 C39.6345442,91.5906369 35.0496674,60.0941865 44.8184041,27.7424971 C47.7274172,18.0169308 51.8620819,8.69557611 57.1241181,0 C57.1241181,0 65.469583,9.518628 71.5949637,27.7370381 C77.7203445,45.9554483 81.618314,72.8772799 72.7269869,107.683687 Z" id="Path" fill="#E3E8F4" fill-rule="nonzero"></path>
                    <ellipse id="Oval" fill="#AFC0E0" fill-rule="nonzero" cx="58.0253381" cy="52.8666667" rx="12.9907473" ry="13"></ellipse>
                    <path d="M67.5518861,53.2991643 C67.5518017,56.8169574 65.5258398,60.0196986 62.3485789,61.5248109 C59.1713179,63.0299232 55.4117781,62.5678538 52.6928982,60.3380716 C52.0427294,59.8022657 51.4692576,59.1795533 50.9885902,58.4874248 C50.7727378,58.1782393 50.5766146,57.8557197 50.4013916,57.521792 C49.7193436,56.2189901 49.3636357,54.7699293 49.3648429,53.2991643 C49.3648429,53.2257117 49.3648429,53.1540506 49.3648429,53.0823896 C49.4605673,49.087428 52.1463004,45.6210682 55.9887291,44.5332255 C56.7034677,44.336102 57.4389925,44.2242508 58.1799823,44.2000016 L58.4520987,44.2000016 C60.8647082,44.1985757 63.1790173,45.1565481 64.8856615,46.8630752 C66.5923058,48.5696022 67.5514116,50.8848201 67.5518861,53.2991643 L67.5518861,53.2991643 Z" id="Path" fill="#2987CD" fill-rule="nonzero"></path>
                    <path d="M71.0160854,27.2426302 C56.0940505,34.1967123 44.1685409,27.2426302 44.1685409,27.2426302 C47.0878013,17.6918431 51.2353747,8.5384479 56.5126827,0 C56.5126827,0 64.8779825,9.34896007 71.0160854,27.2426302 Z" id="Path" fill="#AFC0E0" fill-rule="nonzero"></path>
                    <path d="M71.8821352,107.466667 C71.2026467,110.228259 70.4456727,113.037231 69.6112131,115.893583 C69.2154409,117.255919 68.7982111,118.629332 68.3595238,120.013819 C68.3595238,120.013819 61.9723318,126.882726 46.5443665,120.013819 C46.5443665,120.013819 46.0436908,118.557338 45.2926772,115.893583 C44.7312051,113.881461 44.0320472,111.184478 43.3024911,107.902319 C43.3024911,107.902319 49.0459571,110.433163 57.198031,110.433163 C62.2340846,110.450976 67.2240642,109.442896 71.8821352,107.466667 Z" id="Path" fill="#AFC0E0" fill-rule="nonzero"></path>
                    <path d="M70.1500356,116.133333 C69.741294,117.450135 69.3103918,118.777643 68.8573289,120.115856 C68.8573289,120.115856 62.2608311,126.755179 46.3272975,120.115856 C46.3272975,120.115856 45.8102148,118.708056 45.0345907,116.133333 C45.032744,116.133333 61.2728339,120.647573 70.1500356,116.133333 Z" id="Path" fill="#E3E8F4" fill-rule="nonzero"></path>
                    <path d="M55.8703214,43.6801865 L55.850986,43.6951049 L49.3648429,52.579021 C49.3648429,52.6536131 49.3648429,52.7282051 49.3648429,52.804662 C49.3636575,54.335583 49.7129124,55.843912 50.3825873,57.2 L58.0253381,43.3333333 L55.8703214,43.6801865 Z" id="Path" fill="#FFFFFF" fill-rule="nonzero" opacity="0.2"></path>
                    <path d="M57.1592883,52.6583623 L51.8906369,60.6666667 C51.2574674,60.1373614 50.6989896,59.5222039 50.2308897,58.8384725 L56.5072447,52 L57.1592883,52.6583623 Z" id="Path" fill="#FFFFFF" fill-rule="nonzero" opacity="0.2"></path>
                    <path d="M50.3955633,120.059179 C50.3955633,120.059179 48.8057036,115.635324 47.0572269,108.119683 C43.207996,91.5889123 38.591501,60.0905518 48.4276048,27.7369005 C51.0716135,18.9827342 54.7129305,10.5525181 59.2818089,2.60772723 C58.0331604,0.880767605 57.2529857,0 57.2529857,0 C51.9538236,8.69357235 47.7894104,18.0130369 44.8587203,27.7369005 C35.0226166,60.0905518 39.6391115,91.5889123 43.4883425,108.119683 C45.2368192,115.635324 46.8266788,120.059179 46.8266788,120.059179 C53.1141863,122.732418 57.9446299,123.292907 61.4895374,122.994465 C58.4610577,122.766994 54.7833545,121.924441 50.3955633,120.059179 Z" id="Path" fill="#FFFFFF" fill-rule="nonzero" opacity="0.2"></path>
                    <path d="M170.611815,131.733333 C170.611815,131.733333 179.267375,121.294991 178.693301,110.840495 C178.423907,106.457752 179.628638,102.108567 182.126636,98.4458606 C183.328879,96.7132103 184.692621,95.091124 186.200712,93.6" id="Path" stroke="#535461" stroke-width="2"></path>
                    <path d="M185.554396,86.7279028 C184.91604,88.2070086 185.871662,93.6 185.871662,93.6 C185.871662,93.6 190.529363,90.4119889 191.167719,88.932883 C191.805799,87.4537221 191.06648,85.7610237 189.516404,85.1521352 C187.966328,84.5432468 186.192476,85.2487419 185.554396,86.7279028 L185.554396,86.7279028 Z" id="Path" fill="#2987CD" fill-rule="nonzero"></path>
                    <path d="M177.592217,93.423225 C177.900404,94.9319425 181.780496,98.8 181.780496,98.8 C181.780496,98.8 183.886121,93.9150459 183.570278,92.4045782 C183.262636,90.8951736 181.67501,89.8995912 180.024214,90.1808828 C178.373418,90.4621743 177.284576,91.9138204 177.592217,93.423225 L177.592217,93.423225 Z" id="Path" fill="#2987CD" fill-rule="nonzero"></path>
                    <path d="M172.140018,107.15683 C173.185606,108.403097 178.406263,110.066667 178.406263,110.066667 C178.406263,110.066667 177.561049,104.496999 176.51546,103.248853 C175.459914,102.045145 173.665678,101.932598 172.476615,102.995508 C171.287552,104.058418 171.139639,105.907064 172.143661,107.15683 L172.140018,107.15683 Z" id="Path" fill="#2987CD" fill-rule="nonzero"></path>
                    <path d="M170.159048,118.561555 C170.976847,119.858409 175.806012,122.2 175.806012,122.2 C175.806012,122.2 175.885445,117.019489 175.067646,115.724361 C174.537804,114.885632 173.580422,114.380997 172.556138,114.400548 C171.531853,114.420099 170.59628,114.960865 170.101838,115.819145 C169.607397,116.677425 169.629205,117.722825 170.159048,118.561555 Z" id="Path" fill="#2987CD" fill-rule="nonzero"></path>
                    <path d="M186.982637,101.226989 C185.503286,101.760228 180.138363,100.890638 180.138363,100.890638 C180.138363,100.890638 183.35877,96.9216955 184.83994,96.3868154 C186.320418,95.8526377 188.000243,96.5031108 188.591932,97.8396877 C189.183622,99.1762646 188.463116,100.692811 186.982637,101.226989 L186.982637,101.226989 Z" id="Path" fill="#2987CD" fill-rule="nonzero"></path>
                    <path d="M185.431402,114.396152 C183.907324,114.505958 179.272313,112.229519 179.272313,112.229519 C179.272313,112.229519 183.481837,109.313907 185.007659,109.2041 C186.513079,109.125275 187.809256,110.192207 187.924569,111.605118 C188.039882,113.018029 186.932002,114.258271 185.431402,114.396152 L185.431402,114.396152 Z" id="Path" fill="#2987CD" fill-rule="nonzero"></path>
                    <path d="M181.483068,127.346882 C179.980667,127.698998 174.942064,126.185229 174.942064,126.185229 C174.942064,126.185229 178.612441,122.629517 180.114842,122.279047 C181.086175,122.051257 182.114114,122.323732 182.811446,122.993834 C183.508778,123.663936 183.76956,124.62986 183.495559,125.527752 C183.221558,126.425644 182.454401,127.119092 181.483068,127.346882 L181.483068,127.346882 Z" id="Path" fill="#2987CD" fill-rule="nonzero"></path>
                    <path d="M185.554396,86.7279028 C184.91604,88.2070086 185.871662,93.6 185.871662,93.6 C185.871662,93.6 190.529363,90.4119889 191.167719,88.932883 C191.805799,87.4537221 191.06648,85.7610237 189.516404,85.1521352 C187.966328,84.5432468 186.192476,85.2487419 185.554396,86.7279028 L185.554396,86.7279028 Z" id="Path" fill="#000000" fill-rule="nonzero" opacity="0.25"></path>
                    <path d="M177.592217,93.423225 C177.900404,94.9319425 181.780496,98.8 181.780496,98.8 C181.780496,98.8 183.886121,93.9150459 183.570278,92.4045782 C183.262636,90.8951736 181.67501,89.8995912 180.024214,90.1808828 C178.373418,90.4621743 177.284576,91.9138204 177.592217,93.423225 L177.592217,93.423225 Z" id="Path" fill="#000000" fill-rule="nonzero" opacity="0.25"></path>
                    <path d="M172.140018,107.15683 C173.185606,108.403097 178.406263,110.066667 178.406263,110.066667 C178.406263,110.066667 177.561049,104.496999 176.51546,103.248853 C175.459914,102.045145 173.665678,101.932598 172.476615,102.995508 C171.287552,104.058418 171.139639,105.907064 172.143661,107.15683 L172.140018,107.15683 Z" id="Path" fill="#000000" fill-rule="nonzero" opacity="0.25"></path>
                    <path d="M170.159048,118.561555 C170.976847,119.858409 175.806012,122.2 175.806012,122.2 C175.806012,122.2 175.885445,117.019489 175.067646,115.724361 C174.537804,114.885632 173.580422,114.380997 172.556138,114.400548 C171.531853,114.420099 170.59628,114.960865 170.101838,115.819145 C169.607397,116.677425 169.629205,117.722825 170.159048,118.561555 Z" id="Path" fill="#000000" fill-rule="nonzero" opacity="0.25"></path>
                    <path d="M186.982637,101.226989 C185.503286,101.760228 180.138363,100.890638 180.138363,100.890638 C180.138363,100.890638 183.35877,96.9216955 184.83994,96.3868154 C186.320418,95.8526377 188.000243,96.5031108 188.591932,97.8396877 C189.183622,99.1762646 188.463116,100.692811 186.982637,101.226989 L186.982637,101.226989 Z" id="Path" fill="#000000" fill-rule="nonzero" opacity="0.25"></path>
                    <path d="M185.431402,114.396152 C183.907324,114.505958 179.272313,112.229519 179.272313,112.229519 C179.272313,112.229519 183.481837,109.313907 185.007659,109.2041 C186.513079,109.125275 187.809256,110.192207 187.924569,111.605118 C188.039882,113.018029 186.932002,114.258271 185.431402,114.396152 L185.431402,114.396152 Z" id="Path" fill="#000000" fill-rule="nonzero" opacity="0.25"></path>
                    <path d="M181.483068,127.346882 C179.980667,127.698998 174.942064,126.185229 174.942064,126.185229 C174.942064,126.185229 178.612441,122.629517 180.114842,122.279047 C181.086175,122.051257 182.114114,122.323732 182.811446,122.993834 C183.508778,123.663936 183.76956,124.62986 183.495559,125.527752 C183.221558,126.425644 182.454401,127.119092 181.483068,127.346882 L181.483068,127.346882 Z" id="Path" fill="#000000" fill-rule="nonzero" opacity="0.25"></path>
                    <path d="M170.611815,131.733333 C170.611815,131.733333 182.588071,125.617902 186.339909,115.883936 C187.886611,111.790395 190.735273,108.303791 194.457751,105.948146 C196.233341,104.842514 198.107783,103.900293 200.057509,103.133333" id="Path" stroke="#535461" stroke-width="2"></path>
                    <path d="M203.268752,96.9774321 C202.187405,98.0410905 200.923559,103.133333 200.923559,103.133333 C200.923559,103.133333 205.931186,102.062666 207.012534,101.00076 C208.095804,99.9386212 208.135894,98.1753664 207.102077,97.0624198 C206.068261,95.9494731 204.352023,95.9082846 203.268752,96.9704228 L203.268752,96.9774321 Z" id="Path" fill="#2987CD" fill-rule="nonzero"></path>
                    <path d="M193.181946,99.2104518 C192.798208,100.716003 194.63056,105.733333 194.63056,105.733333 C194.63056,105.733333 198.715458,102.018817 199.110708,100.50445 C199.493024,99.0026063 198.481264,97.4995446 196.848063,97.1430858 C195.214863,96.786627 193.575528,97.7110666 193.181946,99.2104518 L193.181946,99.2104518 Z" id="Path" fill="#2987CD" fill-rule="nonzero"></path>
                    <path d="M182.002858,109.391337 C182.494023,110.887338 186.833924,114.4 186.833924,114.4 C186.833924,114.4 188.324686,109.229077 187.833521,107.740207 C187.516156,106.772237 186.667239,106.035148 185.60655,105.806593 C184.545861,105.578039 183.434543,105.892742 182.691219,106.632158 C181.947895,107.371573 181.685493,108.423367 182.002858,109.391337 L182.002858,109.391337 Z" id="Path" fill="#2987CD" fill-rule="nonzero"></path>
                    <path d="M175.832615,119.244082 C176.04293,120.759174 179.667994,124.8 179.667994,124.8 C179.667994,124.8 182.069408,120.06338 181.857181,118.548287 C181.645993,117.034718 180.126145,115.963486 178.462507,116.155624 C176.798869,116.347763 175.621426,117.730512 175.832615,119.244082 L175.832615,119.244082 Z" id="Path" fill="#2987CD" fill-rule="nonzero"></path>
                    <path d="M198.075267,110.064895 C196.558212,110.012496 192.26306,107.259872 192.26306,107.259872 C192.26306,107.259872 196.760602,104.815097 198.277657,104.867497 C199.258433,104.901721 200.14542,105.428654 200.604498,106.249806 C201.063577,107.070958 201.025001,108.061577 200.503304,108.848505 C199.981606,109.635434 199.056044,110.099119 198.075267,110.064895 L198.075267,110.064895 Z" id="Path" fill="#2987CD" fill-rule="nonzero"></path>
                    <path d="M191.048535,121.183252 C189.560357,120.701313 186.200712,116.840862 186.200712,116.840862 C186.200712,116.840862 191.471414,115.776647 192.957792,116.258587 C193.920207,116.570333 194.627563,117.327717 194.813407,118.245438 C194.999251,119.16316 194.635349,120.101796 193.858778,120.707771 C193.082208,121.313746 192.010949,121.494999 191.048535,121.183252 Z" id="Path" fill="#2987CD" fill-rule="nonzero"></path>
                    <path d="M182.087653,131.694946 C180.578861,131.45029 176.674164,128.169601 176.674164,128.169601 C176.674164,128.169601 181.523603,126.310872 183.032395,126.555528 C184.541755,126.800376 185.554237,128.149362 185.293836,129.568573 C185.033435,130.987784 183.59876,131.939794 182.0894,131.694946 L182.087653,131.694946 Z" id="Path" fill="#2987CD" fill-rule="nonzero"></path>
                    <path d="M187.932079,125.832158 L178.562454,112.331647 C178.562454,112.331647 178.38013,108.989578 177.774815,108.208856 C177.1695,107.428134 177.643542,105.690982 177.643542,105.690982 C177.643542,105.690982 178.299908,104.736364 177.731057,104.649416 C177.162207,104.562468 177.643542,102.43405 177.643542,102.43405 L177.599784,99.0485062 C177.599784,99.0485062 178.124877,95.7879507 177.6873,95.012663 C177.425634,94.5812858 177.442758,94.0375841 177.731057,93.6233041 C177.731057,93.6233041 178.25615,91.7557304 177.731057,91.279327 C177.205965,90.8029236 177.337238,87.8919721 177.468511,85.5914691 C177.599784,83.2909661 176.547775,81.9885553 176.547775,81.6407627 C176.547775,81.2929701 173.083622,77.9074267 173.083622,77.6049196 C173.083622,77.3024125 170.895735,76.0416644 169.58118,75.6938718 C168.266625,75.3460792 167.610259,75.0870462 167.654016,74.9131499 C167.697774,74.7392536 165.59558,74.0454798 165.59558,74.0454798 C165.59558,74.0454798 163.755932,73.9150576 163.053985,73.0021021 C162.352038,72.0891465 160.211556,71.8283021 160.149565,71.819245 C160.136803,71.7594682 160.122217,71.6978799 160.109454,71.638103 C160.096691,71.5783262 160.082106,71.5076808 160.069343,71.4424697 C160.235258,71.1653225 160.38841,70.882741 160.526976,70.5911024 C160.56891,70.5023429 160.609022,70.4099605 160.64731,70.3266352 C161.414893,70.2922182 162.202532,70.1291904 162.804201,69.6618441 C163.429046,69.1425297 163.808742,68.3887172 163.852563,67.5805229 C163.8897,66.7780998 163.712969,65.9801563 163.340233,65.2673399 C162.957353,64.4848066 162.393972,63.675102 162.587236,62.8273575 C162.672928,62.4650736 162.89354,62.139018 163.006581,61.7803569 C163.2199,61.1010745 163.02299,60.3547696 162.69116,59.7243956 C162.359331,59.0940215 161.898051,58.5397271 161.529757,57.9292786 C161.059311,57.1513652 160.745374,56.2900978 160.605375,55.393291 C160.530622,54.9223219 160.501451,54.4259929 160.262606,54.0111778 C160.064628,53.7033534 159.80297,53.4409211 159.495023,53.2413244 C158.125113,52.2678746 156.470797,51.76945 154.78742,51.8229828 C153.595022,51.8646454 152.40627,52.1852667 151.222988,52.0385417 C150.510102,51.9515936 149.830034,51.6998062 149.140849,51.4951158 C147.671319,51.0639979 145.97753,50.8864788 144.697616,51.7215433 C143.417703,52.5566077 142.909019,54.1995654 142.042981,55.483862 C141.27722,56.6214336 140.154105,57.5742404 139.570669,58.7770231 C139.570669,58.755286 139.581608,58.7317376 139.588901,58.7081891 C139.445482,58.9865289 139.335924,59.2808422 139.262541,59.5849162 C139.040106,60.5304773 139.226077,61.5195125 139.457628,62.4632622 C139.576139,62.9505341 139.74023,63.4794686 140.165045,63.7493702 C140.589859,64.0192717 141.191528,63.9594949 141.694742,64.0482544 C141.67651,64.1297683 141.654631,64.2130936 141.636398,64.2964189 C140.555768,69.3685118 143.578477,74.414438 148.581115,75.8895051 C148.581115,75.9782647 148.581115,76.0706471 148.581115,76.1539724 C148.580169,76.4033979 148.564951,76.6525682 148.535534,76.9002773 L148.535534,76.9002773 C148.535534,76.9002773 144.132412,75.9945675 142.94913,76.6104502 C141.765848,77.2263329 139.444865,77.697302 139.094803,78.0414717 C138.744742,78.3856415 137.869587,78.1284199 137.089241,80.1698899 C136.308895,82.2113599 136.214086,84.2926812 135.205835,85.2418651 C134.197584,86.191049 133.674314,86.8485944 133.630557,87.5441796 C133.586799,88.2397647 133.76183,88.4118496 133.366187,88.6310314 C132.970544,88.8502132 132.403517,89.7595459 132.578548,90.1073385 C132.578548,90.1073385 132.797337,90.9750085 132.097213,91.4079378 C131.397089,91.8408671 131.482781,92.7103486 131.482781,92.7103486 C131.482781,92.7103486 131.220235,93.6667782 130.607627,93.8823371 C129.995019,94.0978961 129.599376,95.5325405 129.599376,95.5325405 L127.606576,97.8058723 L123.670203,93.4765791 C123.056389,92.800962 122.007596,92.7474432 121.327341,93.3570254 L119.394708,95.0887427 C118.648713,95.2684624 117.974569,95.6674227 117.460252,96.2335599 C117.039076,96.6632084 116.699923,97.1652652 116.459293,97.7153013 L115.399992,98.6608624 C114.719268,99.4995343 114.612149,100.662347 115.128329,101.609854 L117.649868,104.379514 L117.666278,104.403063 C116.712724,104.522617 115.870387,104.826935 115.226784,105.390287 C111.461796,108.688882 111.416215,111.730256 111.986889,113.115992 C112.557562,114.501728 117.328978,119.845416 117.328978,119.845416 C117.328978,119.845416 120.102125,123.426593 124.105957,125.332206 L124.105957,125.332206 L124.074962,125.363 C123.996563,125.446326 123.918164,125.544142 123.841587,125.634713 L123.775951,125.718039 L123.715784,125.801364 L123.644678,125.906426 C123.624622,125.933598 123.60639,125.96258 123.588157,125.991563 C123.569925,126.020546 123.537107,126.073077 123.513404,126.116551 L123.464177,126.199876 C123.435005,126.254219 123.40401,126.310373 123.374838,126.368338 L123.345667,126.424492 C123.309202,126.500572 123.272737,126.578463 123.238095,126.659977 C123.225333,126.68896 123.214393,126.719754 123.201631,126.748736 C123.179752,126.80489 123.15605,126.862856 123.134171,126.929878 C123.112292,126.996901 123.106822,127.004147 123.09406,127.042186 C123.081297,127.080226 123.055772,127.154494 123.037539,127.21246 C123.019307,127.270425 123.012014,127.293974 123.001074,127.333825 C122.990135,127.373676 122.96461,127.460624 122.9482,127.525836 C122.931791,127.591047 122.928145,127.601915 122.917205,127.643578 C122.893503,127.743206 122.869801,127.846457 122.849746,127.955142 C122.849746,127.994993 122.83516,128.036656 122.827867,128.078319 C122.813281,128.150775 122.800518,128.225044 122.789579,128.301123 C122.780462,128.353654 122.774993,128.406186 122.7677,128.458717 C122.760407,128.511248 122.749467,128.601819 122.740351,128.674276 L122.723942,128.840926 C122.723942,128.920629 122.709356,129.003954 122.703886,129.087279 C122.703886,129.137999 122.703886,129.188719 122.69477,129.239439 C122.69477,129.377106 122.680184,129.514774 122.678361,129.659688 C122.590846,134.731663 122.889857,135.476157 122.889857,135.476157 C122.889857,135.476157 123.507935,137.093754 125.214486,137.209685 C125.464961,137.227913 125.716752,137.214522 125.963837,137.169834 C128.241063,136.778567 133.583153,135.867423 135.466558,136.215216 C136.59879,136.423529 138.695514,136.115588 140.188747,135.834818 L140.580743,135.76055 L140.854229,136.622785 L141.720267,136.387301 L142.449563,136.809362 L142.914489,137.073829 C143.778704,139.986592 147.290262,138.993934 147.290262,138.993934 L148.114366,139.468526 L156.566901,139.685896 C156.566901,139.685896 158.39014,140.772748 159.558836,141.113295 C159.697794,141.155068 159.839834,141.185957 159.983651,141.205677 C160.767221,141.268108 161.553912,141.282627 162.339275,141.249151 C162.986525,141.232849 163.487916,141.205677 163.487916,141.205677 C163.487916,141.205677 163.402223,138.9251 163.278243,136.372809 C166.509022,136.238764 169.373331,136.037697 171.107231,135.73519 C175.62157,134.947222 177.504976,130.869716 178.197807,128.690578 C178.406021,129.581238 178.554033,130.484738 178.640854,131.395028 C178.824818,132.190287 179.059269,132.973178 179.342801,133.739005 C179.58932,134.355203 179.91274,134.938209 180.305471,135.474345 C183.634705,134.345831 181.620026,132.653965 180.918079,131.914906 C180.216132,131.175846 181.401237,130.569021 181.401237,130.569021 C181.401237,130.569021 182.312857,129.962195 182.232634,129.397032 C182.152412,128.831869 182.101361,128.225044 185.07871,128.268518 C188.056059,128.311992 187.932079,125.832158 187.932079,125.832158 Z M141.683803,98.1174364 C141.722091,98.3656009 142.137789,101.041068 142.513376,101.740276 C142.591776,101.888812 142.622771,102.415935 142.611831,103.169486 C140.846936,103.030007 139.009111,102.955739 139.009111,102.955739 C139.06201,103.01917 139.094979,103.096648 139.10392,103.178543 L138.826787,103.116955 L138.423852,103.019138 L141.674686,98.1065679 L141.683803,98.1174364 Z M135.244123,108.297615 L138.298048,108.779453 L138.555125,108.819304 C138.467567,109.292493 138.414555,109.771353 138.396503,110.252137 C138.396503,110.297423 138.465786,110.351765 138.564241,110.415165 C138.521563,110.654305 138.50142,110.896877 138.504074,111.139733 C138.553302,111.380652 139.980898,111.898718 141.618166,112.329836 C141.596287,112.416784 141.574408,112.500109 141.552529,112.578 L141.552529,112.578 C140.106701,111.822638 137.827652,111.469411 137.565106,110.907871 C137.30256,110.346331 129.542855,107.647316 129.542855,107.647316 C129.542855,107.647316 129.260253,107.498779 128.771625,107.263295 L130.813653,107.647316 L131.37521,107.591162 C132.648352,107.907586 133.940656,108.142347 135.244123,108.293992 L135.244123,108.297615 Z" id="Shape" fill="url(#linearGradient-1)" fill-rule="nonzero"></path>
                    <path d="M178.376467,127.525895 C178.376467,127.525895 177.157353,134.941303 170.968427,136.038039 C164.779501,137.134775 144.12229,136.915427 144.12229,136.915427 C144.12229,136.915427 132.311894,135.204888 128.041333,125.155471 C123.770773,115.106054 121.02502,111.111724 124.686024,110.936615 C128.347027,110.761506 148.088987,117.651587 149.214746,117.73822 C150.340504,117.824853 179.465616,102.466866 178.376467,127.525895 Z" id="Path" fill="#434175" fill-rule="nonzero"></path>
                    <path d="M178.376467,127.525895 C178.376467,127.525895 177.157353,134.941303 170.968427,136.038039 C164.779501,137.134775 144.12229,136.915427 144.12229,136.915427 C144.12229,136.915427 132.311894,135.204888 128.041333,125.155471 C123.770773,115.106054 121.02502,111.111724 124.686024,110.936615 C128.347027,110.761506 148.088987,117.651587 149.214746,117.73822 C150.340504,117.824853 179.465616,102.466866 178.376467,127.525895 Z" id="Path" fill="#000000" fill-rule="nonzero" opacity="0.05"></path>
                    <path d="M123.205323,136.039153 C123.205323,136.039153 123.819103,137.676353 125.507454,137.792505 C125.75525,137.810183 126.004257,137.796558 126.248726,137.751944 C128.503504,137.357394 133.7944,136.435547 135.657597,136.785849 C136.779522,136.997874 138.85399,136.684446 140.33107,136.402361 C141.314576,136.217991 142.032171,136.033622 142.032171,136.033622 C142.032171,136.033622 140.298287,130.19649 140.07973,130.021339 C139.861173,129.846188 132.27543,125.236955 132.27543,125.236955 L126.265118,124.8 L126.246905,124.8 C126.246905,124.8 125.134087,124.875591 124.210684,126.011306 C123.575048,126.787501 123.030477,128.063337 122.994051,130.154085 C122.910271,135.292458 123.205323,136.039153 123.205323,136.039153 Z" id="Path" fill="#565387" fill-rule="nonzero"></path>
                    <path d="M122.350732,136.044889 C122.350732,136.044889 122.997566,137.683731 124.776839,137.8 C124.152461,137.028491 123.575655,136.222452 123.04939,135.386031 L123.082019,131.124673 C122.799869,127.933731 124.352654,125.890716 125.577224,124.8 L125.55803,124.8 C125.55803,124.8 122.222133,125.017774 122.130003,130.152073 C122.037872,135.286371 122.350732,136.044889 122.350732,136.044889 Z" id="Path" fill="#000000" fill-rule="nonzero" opacity="0.05"></path>
                    <path d="M148.884418,126.533333 L154.29789,122.212602 L162.817367,113.639551 C162.817367,113.639551 161.8972,113.594544 160.509898,113.533333 C160.157344,113.758371 159.196633,114.465891 159.161378,115.333638 C159.119071,116.381415 156.857435,115.40565 155.683429,116.005152 C154.509423,116.604653 148.759261,124.120925 147.750955,124.072317 C146.74265,124.023709 145.94764,123.550229 145.526337,124.279352 C145.526337,124.295555 145.506947,124.309957 145.49637,124.32616 L148.884418,126.533333 Z" id="Path" fill="#000000" fill-rule="nonzero" opacity="0.1"></path>
                    <path d="M123.845125,125.97984 C124.038092,126.074729 124.232829,126.158875 124.432877,126.251973 C128.564848,128.042322 133.663424,131.802055 134.044047,132.475226 C134.274191,132.890587 137.230657,134.706001 139.512624,136.066667 C140.468607,135.887632 141.166121,135.708597 141.166121,135.708597 C141.166121,135.708597 139.480758,130.040352 139.268318,129.870269 C139.055877,129.700185 131.682415,125.224313 131.682415,125.224313 L125.840297,124.8 L125.822593,124.8 C125.822593,124.8 124.742686,124.876985 123.845125,125.97984 Z" id="Path" fill="#000000" fill-rule="nonzero" opacity="0.1"></path>
                    <path d="M111.986427,113.657183 C112.547483,115.051728 117.252,120.412121 117.252,120.412121 C117.252,120.412121 120.233404,124.332217 124.471283,126.162328 C128.709161,127.992438 133.93842,131.83567 134.326983,132.523792 C134.577552,132.972169 137.958413,135.021892 140.333368,136.431077 L140.865373,136.744026 L142.045588,137.433978 L142.670194,137.8 C142.670194,137.8 144.122766,136.628729 145.558996,135.450138 C146.995227,134.271547 148.396959,133.116747 148.420563,133.050863 C148.462324,132.920926 149.02338,131.438536 148.894464,131.352521 C148.827283,131.306768 148.531321,130.702832 147.986607,130.00373 C147.405264,129.227792 146.650727,128.600819 145.784145,128.173619 C143.786858,127.258564 142.931657,125.175898 142.931657,125.175898 C142.931657,125.175898 142.750085,125.03681 142.454124,124.853799 C141.942092,124.528039 141.119573,124.059531 140.511309,123.980836 C139.558058,123.860049 137.787736,121.900001 137.787736,121.900001 C137.787736,121.900001 136.576654,121.114883 136.100937,120.113813 C135.647008,119.158495 128.943389,114.517335 128.322414,114.089089 L144.574879,124.608564 L148.46414,127.128626 L154.040201,122.736361 L162.817367,114.021375 C162.817367,114.021375 161.637152,113.962812 159.912223,113.889607 C155.647108,113.706596 148.071946,113.411949 147.115064,113.629732 C146.336029,113.812698 145.532438,113.865253 144.736477,113.785291 C144.736477,113.785291 142.579408,113.884117 141.152256,113.124621 C139.725104,112.365125 137.475433,112.010084 137.215786,111.44824 C136.956139,110.886396 129.304716,108.181493 129.304716,108.181493 C129.304716,108.181493 118.887959,102.605147 115.169375,105.917646 C111.450791,109.230146 111.423555,112.264469 111.986427,113.657183 Z" id="Path" fill="#434175" fill-rule="nonzero"></path>
                    <path d="M145.49637,82.1564256 L146.883802,86.6078941 L148.673552,96.634591 L155.253516,97.0666667 L157.157945,94.0167208 L159.066135,90.9722213 C159.066135,90.9722213 160.250528,86.9201505 161.102163,83.000607 C161.854159,79.5331091 162.346717,76.167276 161.527041,75.8023718 C160.801365,75.4774073 160.323848,74.3100768 160.023049,73.0537896 C159.98357,72.8994769 159.94785,72.7415333 159.91401,72.5835896 C159.694748,71.5199864 159.54904,70.4434694 159.477852,69.3611766 C159.477852,69.3611766 145.691889,68.6713079 147.616998,74.159395 C147.960554,75.0969126 148.136029,76.0841419 148.135875,77.0786289 C148.133966,77.3267678 148.118277,77.5746292 148.088876,77.8211454 C147.890795,79.5528288 146.950523,81.125184 145.49637,82.1564256 Z" id="Path" fill="#EE8E9E" fill-rule="nonzero"></path>
                    <path d="M142.898221,81.5955663 L143.380783,89.1227668 L144.47668,95.5315475 L145.705189,98.5001482 L146.801085,114.739821 C146.801085,114.739821 157.375105,115.939548 159.946317,114.71814 C160.131695,114.64057 160.292574,114.515811 160.412304,114.356776 C163.517651,109.76204 162.499111,96.4349562 162.499111,96.4349562 L163.683416,87.8290857 L162.893266,83.3626335 L160.986959,83.1638836 L159.513484,83.0103042 C159.513484,83.0103042 159.181953,83.4114176 158.703074,84.0311559 C157.402733,85.7151096 155.019388,89.0270055 155.172261,90.4092207 C155.389598,92.3027652 154.908877,94.2378664 154.162931,94.5396049 C153.416985,94.8413434 152.803651,95.3562863 152.67288,94.8413434 C152.542109,94.3264005 152.409497,94.1963096 152.540268,93.4645486 C152.671038,92.7327877 151.969296,90.4959479 151.969296,90.4959479 C151.969296,90.4959479 150.786833,87.8724493 150.864191,86.7540295 C150.941548,85.6356096 150.73342,84.3437353 150.381628,84.0438036 C150.029836,83.743872 149.549115,83.4403267 149.943269,82.0563047 C150.337424,80.6722827 148.213779,78 148.213779,78 L142.898221,81.5955663 Z" id="Path" fill="#E3E8F4" fill-rule="nonzero"></path>
                    <path d="M156.774284,100.110879 L157.225663,113.01841 L159.83342,114.4 C160.024256,114.322084 160.189894,114.196905 160.313247,114.037378 C163.512727,109.419386 162.463935,96.0476987 162.463935,96.0476987 L163.683416,87.4136681 L162.869796,82.9334728 L160.904971,82.7340307 C161.663591,79.2709902 162.160487,75.909484 161.335487,75.5450488 C160.601523,75.2205021 160.119799,74.0546722 159.806868,72.8 L159.806868,72.8 L158.403421,81.9380753 C158.403421,81.9380753 158.521007,82.7612273 158.562731,83.6097629 C158.594973,84.2407252 158.583593,84.87894 158.448938,85.2179916 C158.132214,85.9958159 158.357904,87.3774059 158.357904,87.3774059 C157.544284,88.7481172 157.138422,91.2882845 156.939284,93.7414226 C156.671871,97.0032078 156.774284,100.110879 156.774284,100.110879 Z" id="Path" fill="#000000" fill-rule="nonzero" opacity="0.1"></path>
                    <path d="M159.494246,72.8 C159.494246,72.8 161.683485,73.0700838 162.376744,73.9764051 C163.070003,74.8827264 164.896193,75.0077988 164.896193,75.0077988 C164.896193,75.0077988 166.981443,75.6984156 166.937658,75.8706167 C166.893873,76.0428177 167.545172,76.3038383 168.849593,76.6482404 C170.154015,76.9926425 172.315888,78.2451785 172.315888,78.5478899 C172.315888,78.8506012 175.74752,82.214866 175.74752,82.5610807 C175.74752,82.9072955 176.791057,84.1924591 176.659703,86.4872647 C176.528349,88.7820703 176.398819,91.6659848 176.920587,92.1408972 C177.442356,92.6158095 176.920587,94.4719556 176.920587,94.4719556 C176.63789,94.8866467 176.627169,95.4277655 176.893222,95.8531893 C177.327421,96.630813 176.807477,99.8681928 176.807477,99.8681928 L176.849437,103.23427 C176.849437,103.23427 176.371453,105.347812 176.937007,105.434818 C177.50256,105.521825 176.849437,106.469837 176.849437,106.469837 C176.849437,106.469837 176.371453,108.197286 176.980792,108.973097 C177.59013,109.748908 177.76162,113.073295 177.76162,113.073295 L187.065885,126.48685 C187.065885,126.48685 187.19724,128.946606 184.243591,128.903103 C181.289943,128.859599 181.324606,129.465022 181.419473,130.025129 C181.51434,130.585235 180.59486,131.190658 180.59486,131.190658 C180.59486,131.190658 179.421793,131.794268 180.116876,132.528388 C180.81196,133.262508 182.80964,134.944641 179.509362,136.066667 C179.118806,135.533769 178.797605,134.953963 178.553395,134.341031 C178.273263,133.579704 178.041119,132.801783 177.858311,132.011785 C177.858311,132.011785 177.553642,128.730902 176.946129,128.299493 C176.338615,127.868084 176.42436,125.796233 176.42436,125.796233 C176.42436,125.796233 177.292758,124.114101 176.07773,123.423484 C174.862703,122.732867 157.208316,113.031604 157.208316,113.031604 L156.774117,100.127401 C156.774117,100.127401 156.469448,90.5910877 158.293813,87.3972113 C158.293813,87.3972113 158.076714,86.0159776 158.381383,85.2401666 C158.686052,84.4643555 158.337598,81.9592833 158.337598,81.9592833 L159.494246,72.8 Z" id="Path" fill="#565387" fill-rule="nonzero"></path>
                    <path d="M148.573911,77.6316129 C148.573911,77.6316129 144.155033,76.7399333 142.967679,77.342224 C141.780325,77.9445147 139.459168,78.4274324 139.089851,78.763847 C138.720534,79.1002617 137.858179,78.8506637 137.067841,80.8745775 C136.277502,82.8984912 136.18702,84.9640046 135.176938,85.9117533 C134.166856,86.859502 133.638733,87.5052011 133.594415,88.1943084 C133.550097,88.8834158 133.725522,89.0552405 133.330353,89.2795169 C132.935184,89.5037933 132.362743,90.3990902 132.538168,90.7445483 C132.713594,91.0900063 141.699075,98.6575265 141.699075,98.6575265 C141.699075,98.6575265 142.140409,101.551416 142.535578,102.274888 C142.930748,102.99836 142.096091,113.083564 141.217117,113.772671 C140.338142,114.461779 147.15204,114.398475 147.15204,114.398475 C147.15204,114.398475 147.458574,107.787747 147.722635,107.442289 C147.986697,107.096831 147.537977,100.026698 147.537977,100.026698 C147.537977,100.026698 147.493659,93.9983649 148.0661,92.4049172 C148.638541,90.8114695 148.573911,85.5210783 148.573911,85.5210783 C148.573911,85.5210783 149.079875,82.3432262 149.694788,81.6016671 C150.309701,80.860108 148.573911,77.6316129 148.573911,77.6316129 Z" id="Path" fill="#000000" fill-rule="nonzero" opacity="0.1"></path>
                    <path d="M148.590564,77.6316371 C148.590564,77.6316371 144.165258,76.7399142 142.976673,77.3422341 C141.788089,77.944554 139.464526,78.4184514 139.104069,78.7639262 C138.743612,79.109401 137.872969,78.8489383 137.07072,80.8729503 C136.268472,82.8969623 136.190835,84.9643847 135.177858,85.9121794 C134.164881,86.8599741 133.638058,87.5057045 133.593695,88.1948453 C133.549331,88.8839861 133.726786,89.0558191 133.331208,89.2710625 C132.935629,89.486306 132.362594,90.3906903 132.538202,90.7343563 C132.713809,91.0780223 141.691967,98.6585712 141.691967,98.6585712 C141.691967,98.6585712 142.131909,101.552601 142.527488,102.276108 C142.923067,102.999616 142.087546,113.0835 141.20766,113.772641 C140.327775,114.461782 147.148735,114.398475 147.148735,114.398475 C147.148735,114.398475 147.457434,107.787426 147.721769,107.44376 C147.986105,107.100094 147.536919,100.027809 147.536919,100.027809 C147.536919,100.027809 147.494404,93.9991835 148.06559,92.4056584 C148.636776,90.8121333 148.573927,85.5142503 148.573927,85.5142503 C148.573927,85.5142503 149.080416,82.336244 149.694117,81.5964577 C150.307819,80.8566714 148.590564,77.6316371 148.590564,77.6316371 Z" id="Path" fill="#565387" fill-rule="nonzero"></path>
                    <path d="M147.407256,73.9494559 C147.741002,74.8461904 147.911467,75.7904742 147.911318,76.7416998 C152.311348,77.9809962 157.033025,76.2067329 159.353167,72.4421999 C159.140165,71.4248646 158.998618,70.3951772 158.929463,69.3599654 C158.929463,69.3599654 145.538938,68.7001068 147.407256,73.9494559 Z" id="Path" fill="#000000" fill-rule="nonzero" opacity="0.1"></path>
                    <path d="M141.166125,67.1760065 C141.170817,72.4774649 145.322352,76.8473309 150.613232,77.1199403 C155.904112,77.3925496 160.482206,73.4724725 161.031004,68.1995324 C161.579801,62.9265922 157.90719,58.1466389 152.673721,57.3224165 C147.440252,56.4981941 142.477958,59.9182306 141.381677,65.1049472 C141.237767,65.7858766 141.165522,66.4800162 141.166125,67.1760065 L141.166125,67.1760065 Z" id="Path" fill="#EE8E9E" fill-rule="nonzero"></path>
                    <path d="M135.195224,90.1333333 L132.801013,90.8687419 C132.801013,90.8687419 133.018668,91.7330739 132.321804,92.1652399 C131.624941,92.597406 131.712735,93.4635538 131.712735,93.4635538 C131.712735,93.4635538 131.451182,94.4132296 130.842112,94.6293126 C130.233042,94.8453956 129.839799,96.2635538 129.839799,96.2635538 L127.837002,98.5551232 C127.837002,98.5551232 127.096241,99.1597925 127.227932,99.463035 C127.359622,99.7662776 126.443274,99.8516213 126.443274,99.8516213 L126.922482,107.554345 L131.059768,108.333333 L133.620422,108.073671 L135.711013,107.294682 L137.540052,106.205188 L138.374093,104.10428 L142.032171,98.5714656 L135.195224,90.1333333 Z" id="Path" fill="#565387" fill-rule="nonzero"></path>
                    <path d="M126.972503,100.198382 C126.972503,100.198382 121.547423,92.3532256 117.486097,96.5874761 C113.42477,100.821727 119.134198,107.684132 120.46989,107.461376 C121.805582,107.238619 128.175374,106.882957 128.175374,106.882957 L126.972503,100.198382 Z" id="Path" fill="#EE8E9E" fill-rule="nonzero"></path>
                    <path d="M122.542184,95.7309481 L122.542184,95.7309481 C125.627713,95.7354639 128.127904,98.2356535 128.132421,101.321183 L128.134645,102.840553 C128.139146,105.91443 125.650924,108.409948 122.577047,108.414448 C122.571615,108.414456 122.566184,108.414456 122.560753,108.414448 L122.560753,108.414448 C119.475223,108.409932 116.975033,105.909743 116.970515,102.824213 L116.968291,101.304843 C116.963791,98.2309662 119.452013,95.7354483 122.52589,95.7309481 C122.531321,95.7309401 122.536753,95.7309401 122.542184,95.7309481 Z" id="Rectangle" fill="#30374E" fill-rule="nonzero" transform="translate(122.551468, 102.072698) rotate(-42.050000) translate(-122.551468, -102.072698) "></path>
                    <path d="M122.542184,95.7309481 L122.542184,95.7309481 C125.627713,95.7354639 128.127904,98.2356535 128.132421,101.321183 L128.134645,102.840553 C128.139146,105.91443 125.650924,108.409948 122.577047,108.414448 C122.571615,108.414456 122.566184,108.414456 122.560753,108.414448 L122.560753,108.414448 C119.475223,108.409932 116.975033,105.909743 116.970515,102.824213 L116.968291,101.304843 C116.963791,98.2309662 119.452013,95.7354483 122.52589,95.7309481 C122.531321,95.7309401 122.536753,95.7309401 122.542184,95.7309481 Z" id="Rectangle" fill="#000000" fill-rule="nonzero" opacity="0.1" transform="translate(122.551468, 102.072698) rotate(-42.050000) translate(-122.551468, -102.072698) "></path>
                    <path d="M122.691095,95.1046784 L122.691095,95.1046784 C125.776625,95.1091942 128.276815,97.6093838 128.281332,100.694913 L128.283557,102.214283 C128.288057,105.28816 125.799835,107.783678 122.725958,107.788178 C122.720527,107.788186 122.715095,107.788186 122.709664,107.788178 L122.709664,107.788178 C119.624135,107.783662 117.123944,105.283473 117.119427,102.197944 L117.117202,100.678574 C117.112702,97.6046965 119.600924,95.1091785 122.674801,95.1046784 C122.680233,95.1046704 122.685664,95.1046704 122.691095,95.1046784 Z" id="Rectangle" fill="#30374E" fill-rule="nonzero" transform="translate(122.700380, 101.446428) rotate(-42.050000) translate(-122.700380, -101.446428) "></path>
                    <ellipse id="Oval" fill="#2987CD" fill-rule="nonzero" cx="122.113025" cy="101.4" rx="2.59814947" ry="2.6"></ellipse>
                    <ellipse id="Oval" fill="#000000" fill-rule="nonzero" opacity="0.1" cx="122.113025" cy="101.4" rx="2.59814947" ry="2.6"></ellipse>
                    <ellipse id="Oval" fill="#2987CD" fill-rule="nonzero" cx="122.979075" cy="101.4" rx="2.59814947" ry="2.6"></ellipse>
                    <path d="M123.845243,102.373476 C123.802271,108.14291 135.440615,109.36545 135.440615,109.36545 L138.412869,109.85006 L139.745012,110.066667 L140.300071,104.434906 C140.300071,104.434906 139.689506,104.341288 138.926747,104.159559 C137.800513,103.889719 136.341244,103.425301 136.035066,102.773647 C135.524769,101.681438 123.886425,96.6058779 123.845243,102.373476 Z" id="Path" fill="#EE8E9E" fill-rule="nonzero"></path>
                    <path d="M141.166121,65.0412103 C141.443147,65.0613459 141.704414,65.1760638 141.905019,65.365648 C142.244912,65.7210713 142.263385,66.3517198 142.704876,66.5704418 C142.869859,66.6412899 143.052443,66.6622235 143.229494,66.6305904 C144.3988,66.4665488 145.076739,65.1724435 146.198017,64.8079068 C146.837164,64.6037663 147.540964,64.7368222 148.165333,64.973771 C148.416406,65.0514018 148.641654,65.1943238 148.817411,65.3875202 C149.18686,65.8668859 148.930093,66.5722645 149.103734,67.1537005 C149.345723,67.9593267 150.321068,68.280119 151.165259,68.3858346 C152.00945,68.4915502 152.960782,68.5498761 153.524192,69.1787019 C153.923196,69.6252594 154.024795,70.2723121 153.943516,70.8573935 C153.893717,71.0616584 153.893717,71.2746637 153.943516,71.4789286 C154.176269,72.1296266 155.317867,72.0257336 155.615273,71.5190276 C155.833248,71.1453775 155.766747,70.8355213 156.280281,70.7316283 C156.627563,70.6605437 157.035805,70.8045357 157.357225,70.9138967 C158.252524,71.2186836 159.196126,71.3619229 160.142871,71.3367593 C161.77632,67.8772516 161.257866,63.800396 158.808805,60.8463469 C156.359744,57.8922978 152.412675,56.5828553 148.652356,57.4769385 C144.892036,58.3710216 141.982685,61.3107006 141.166121,65.0412103 L141.166121,65.0412103 Z" id="Path" fill="#000000" fill-rule="nonzero" opacity="0.1"></path>
                    <path d="M153.493704,71.4727121 C153.444952,71.2670495 153.444952,71.0525867 153.493704,70.8469241 C153.571467,70.254169 153.473811,69.604524 153.083191,69.1567461 C152.540662,68.5236175 151.600278,68.4630574 150.773826,68.3584535 C149.947373,68.2538497 148.992522,67.9308624 148.755618,67.1197237 C148.585626,66.5343092 148.842423,65.8222689 148.475311,65.3396231 C148.304292,65.1451381 148.084187,65.0017325 147.838744,64.924878 C147.225686,64.6844726 146.536674,64.5578469 145.910958,64.7560437 C144.813241,65.1230747 144.149547,66.4297053 143.004811,66.591199 C142.83148,66.6230486 142.652733,66.6019718 142.491217,66.5306389 C142.059002,66.3104202 142.040918,65.6754565 141.708167,65.3194364 C141.18553,64.7578788 140.192702,65.1194044 139.552518,64.7028242 C139.134771,64.429386 138.973821,63.8990262 138.858081,63.4090397 C138.630219,62.4584292 138.447568,61.4619399 138.666388,60.5113295 C139.040733,58.8853819 140.474818,57.7714426 141.379032,56.3840652 C142.230803,55.0902807 142.708228,53.4478167 143.988597,52.5963046 C145.268965,51.7447926 146.912828,51.9338136 148.355955,52.3687454 C149.032308,52.5724476 149.701427,52.8256991 150.401289,52.919292 C151.565918,53.0642693 152.734164,52.7357765 153.906026,52.7027437 C155.561193,52.6484785 157.187794,53.1496691 158.533798,54.1286593 C158.83708,54.3302 159.094736,54.5947913 159.289722,54.90493 C159.523009,55.3233454 159.553753,55.8225077 159.624282,56.2959777 C159.761038,57.1991398 160.068041,58.0670918 160.528496,58.8523491 C160.890182,59.4671261 161.344098,60.0250133 161.671424,60.6599771 C161.99875,61.2949408 162.190443,62.0455193 161.980666,62.7281971 C161.870351,63.0952281 161.651531,63.41271 161.570152,63.7815762 C161.378458,64.6349234 161.931838,65.4497324 162.3098,66.237014 C162.675868,66.9550632 162.849257,67.7582355 162.812543,68.5658261 C162.769788,69.3786113 162.396483,70.1369201 161.781738,70.6597383 C161.172297,71.1442193 160.371163,71.305713 159.598963,71.3314051 C158.654105,71.3637379 157.711408,71.2200571 156.817598,70.9074843 C156.501123,70.7973749 156.094226,70.6523977 155.763284,70.7239687 C155.26054,70.8285726 155.325644,71.140549 155.112249,71.5167558 C154.837368,72.0305993 153.721566,72.1278625 153.493704,71.4727121 Z" id="Path" fill="#434175" fill-rule="nonzero"></path>
                    <path d="M148.514879,127.4 L154.071228,123.087033 L162.817367,114.529389 C162.817367,114.529389 161.641324,114.471883 159.922492,114.4 C159.609484,114.716284 159.330853,115.118828 159.31276,115.568095 C159.269337,116.613989 156.948009,115.641775 155.743018,116.240199 C154.538027,116.838623 148.636102,124.339591 147.601185,124.29107 C146.566267,124.242549 145.750275,123.76992 145.317853,124.497733 C145.308668,124.514551 145.298394,124.530758 145.287095,124.546254 C145.115193,124.74124 144.885091,124.876605 144.63032,124.932624 L148.514879,127.4 Z" id="Path" fill="#000000" fill-rule="nonzero" opacity="0.1"></path>
                    <path d="M136.835872,126.65784 L139.664588,135.538029 L140.108236,136.933333 L141.45568,136.57279 L144.425556,135.77058 L157.654339,132.197593 C157.654339,132.197593 160.140236,132.165144 162.420808,130.948309 C164.941536,129.599876 167.784918,128.922054 170.641132,129.18525 C172.39006,129.345692 174.335145,128.604775 175.957578,125.673555 C175.957578,125.673555 179.624092,115.037518 170.36981,111.972897 C161.115529,108.908276 160.675547,113.595343 160.675547,113.595343 C160.675547,113.595343 160.627882,113.620581 160.550885,113.671058 C160.184234,113.896397 159.185109,114.604866 159.148444,115.473776 C159.104446,116.522958 156.752377,115.545885 155.531428,116.14619 C154.310478,116.746495 148.330394,124.272843 147.281771,124.22417 C146.233148,124.175497 145.406349,123.701382 144.9682,124.431483 C144.9682,124.447707 144.948034,124.462129 144.937035,124.478353 C144.614382,124.916414 143.642755,125.019169 142.999282,125.035393 C142.64913,125.046209 142.394307,125.035393 142.394307,125.035393 L142.311811,125.060631 L141.626173,125.248114 L136.835872,126.65784 Z" id="Path" fill="#434175" fill-rule="nonzero"></path>
                    <path d="M137.701922,109.84421 L138.92458,110.066667 L139.434021,104.282784 C139.434021,104.282784 138.873636,104.186638 138.173566,104 C138.359265,104.801222 137.938565,107.925047 137.701922,109.84421 Z" id="Path" fill="#000000" fill-rule="nonzero" opacity="0.1"></path>
                    <path d="M173.509666,83.332695 C173.509666,83.332695 177.505894,82.1709174 176.516765,93.5285125 C175.527635,104.886108 168.138043,112.060942 168.138043,112.060942 C168.138043,112.060942 159.629363,115.802841 155.804608,115.201174 C151.979854,114.599507 149.187548,114.478451 149.187548,114.478451 C147.983779,113.869329 146.666425,113.517967 145.319474,113.446764 C143.169741,113.360037 138.659094,112.026613 138.572455,111.596592 C138.485816,111.166572 139.689738,104.842744 139.173514,104.36936 C139.173514,104.36936 145.189515,104.616893 145.792379,105.052334 C146.395242,105.487775 147.252608,105.175197 147.896987,105.052334 C148.541365,104.929471 150.519624,103.207583 154.429213,104.714461 C154.429213,104.714461 155.761289,104.842744 156.277513,104.499451 C156.793738,104.156157 157.620419,104.412724 157.620419,104.412724 C157.620419,104.412724 158.430855,104.110987 158.555399,103.930306 C158.679943,103.749625 159.714197,103.930306 159.714197,103.930306 C159.838591,103.991135 159.983783,103.992439 160.109247,103.933853 C160.234711,103.875267 160.32701,103.763067 160.36038,103.628569 C160.495377,103.27641 160.699787,102.955044 160.961439,102.683609 C160.961439,102.683609 162.122042,96.1447705 164.313288,93.692932 C164.313288,93.692932 164.957667,93.1328215 164.786193,92.4444277 C164.61472,91.7560338 168.358251,81.9541005 173.509666,83.332695 Z" id="Path" fill="#000000" fill-rule="nonzero" opacity="0.1"></path>
                    <path d="M173.509249,82.4655575 C173.509249,82.4655575 177.504398,81.3040257 176.51734,92.6592183 C175.530282,104.014411 168.130055,111.194953 168.130055,111.194953 C168.130055,111.194953 159.623673,114.936061 155.799952,114.334522 C151.97623,113.732982 149.184679,113.602919 149.184679,113.602919 C147.981368,112.993578 146.664296,112.64227 145.31765,112.57145 C143.170303,112.484742 138.659069,111.151599 138.572454,110.72167 C138.485838,110.291741 139.689435,103.96925 139.175154,103.495967 C139.175154,103.495967 145.189531,103.743447 145.790427,104.178796 C146.391323,104.614144 147.252067,104.301633 147.896271,104.178796 C148.540475,104.055959 150.516395,102.336241 154.426732,103.840994 C154.426732,103.840994 155.758448,103.96925 156.272729,103.626029 C156.78701,103.282808 157.617076,103.539321 157.617076,103.539321 C157.617076,103.539321 158.42188,103.237648 158.55,103.066037 C158.678119,102.894427 159.710289,103.066037 159.710289,103.066037 C159.834144,103.126905 159.978854,103.128434 160.103965,103.070196 C160.229076,103.011959 160.321166,102.900204 160.354493,102.766171 C160.48915,102.413398 160.693527,102.091451 160.955389,101.819604 C160.955389,101.819604 162.115678,95.2821486 164.306333,92.8308288 C164.306333,92.8308288 164.950537,92.2708368 164.779111,91.584395 C164.607684,90.8979531 168.344789,81.089061 173.509249,82.4655575 Z" id="Path" fill="#565387" fill-rule="nonzero"></path>
                    <path d="M142.032171,125.868608 L147.578403,132.6 C147.599572,132.580514 147.613685,132.566343 147.613685,132.561029 C147.656022,132.433487 148.20112,131.000409 148.075871,130.915381 C147.950622,130.830353 146.983912,128.722364 145.052257,127.836655 C143.872095,127.305229 143.099432,126.33272 142.67782,125.666667 L142.032171,125.868608 Z" id="Path" fill="#000000" fill-rule="nonzero" opacity="0.1"></path>
                    <path d="M142.152477,137.445665 L142.771628,137.8 C142.771628,137.8 144.211514,136.666128 145.635201,135.52517 C147.058889,134.384212 148.448379,133.266286 148.471777,133.202505 C148.513174,133.076716 149.06933,131.64166 148.94154,131.558392 C148.874945,131.5141 148.581569,130.929447 148.041611,130.252668 C144.204314,129.189663 146.646721,131.817056 146.972496,131.93753 C146.972496,131.93753 142.292865,130.874525 142.044485,135.890135 C142.010539,136.411064 142.046852,136.934124 142.152477,137.445665 Z" id="Path" fill="#000000" fill-rule="nonzero" opacity="0.1"></path>
                    <path d="M146.589665,139.855276 L147.423601,140.333649 L155.891829,140.550926 C155.891829,140.550926 157.706975,141.646436 158.885163,141.978741 C159.023996,142.021683 159.166259,142.052835 159.310416,142.071859 C160.094205,142.134786 160.881175,142.149421 161.666792,142.115679 C162.314796,142.099247 162.817367,142.071859 162.817367,142.071859 C162.817367,142.071859 162.416046,131.481926 162.114135,130.386416 C161.970544,129.853267 161.26179,129.970122 160.562241,130.236696 C160.036674,130.448104 159.529879,130.702787 159.047164,130.998076 C159.047164,130.998076 155.45369,131.343161 154.883005,131.649904 C154.31232,131.956647 152.692312,131.467319 151.683488,131.649904 C150.674664,131.832489 148.879768,130.472231 148.879768,130.472231 C143.970037,128.865482 146.731416,131.863529 147.08119,131.99499 C147.08119,131.99499 142.305846,130.89948 142.042595,136.068463 C141.779343,141.237445 146.589665,139.855276 146.589665,139.855276 Z" id="Path" fill="#565387" fill-rule="nonzero"></path>
                    <path d="M159.357465,135.771373 C159.457279,137.967677 161.323807,140.692924 162.435738,142.133333 C163.13843,142.116861 163.683416,142.089407 163.683416,142.089407 C163.683416,142.089407 163.248226,131.473939 162.920835,130.375787 C162.765125,129.841353 161.996555,129.958489 161.237966,130.225706 C160.325664,131.799724 159.277614,134.001518 159.357465,135.771373 Z" id="Path" fill="#565387" fill-rule="nonzero"></path>
                    <path d="M159.357465,135.771373 C159.457279,137.967677 161.323807,140.692924 162.435738,142.133333 C163.13843,142.116861 163.683416,142.089407 163.683416,142.089407 C163.683416,142.089407 163.248226,131.473939 162.920835,130.375787 C162.765125,129.841353 161.996555,129.958489 161.237966,130.225706 C160.325664,131.799724 159.277614,134.001518 159.357465,135.771373 Z" id="Path" fill="#000000" fill-rule="nonzero" opacity="0.1"></path>
                    <path d="M157.775914,136.053554 C158.408075,138.169901 158.402074,140.543937 159.41033,141.978594 C159.561198,142.021577 159.715794,142.052758 159.872447,142.0718 C160.724183,142.134787 161.579377,142.149436 162.433098,142.115663 C163.137278,142.099214 163.683416,142.0718 163.683416,142.0718 C163.683416,142.0718 163.247305,131.471792 162.919222,130.37524 C162.763182,129.841584 161.992987,129.95855 161.232793,130.225377 C160.661666,130.436986 160.110936,130.691912 159.586375,130.987482 C159.586375,130.987482 156.967709,133.34507 157.775914,136.053554 Z" id="Path" fill="#000000" fill-rule="nonzero" opacity="0.05"></path>
                    <path d="M129.041423,114.4 C129.041423,114.4 133.260335,115.73276 136.835872,120.466667 L129.041423,114.4 Z" id="Path" fill="#000000" fill-rule="nonzero" opacity="0.1"></path>
                    <g id="Group" opacity="0.1" transform="translate(138.567972, 59.800000)" fill="#000000" fill-rule="nonzero">
                        <path d="M23.4428781,3.0154902 C23.4361677,3.04566901 23.4277722,3.07545359 23.4177306,3.10470588 C23.378463,3.22665966 23.3310567,3.34587811 23.2758267,3.46156863 C23.3180007,3.3082226 23.3739075,3.15893414 23.4428781,3.0154902 Z" id="Path"></path>
                        <path d="M0.249678956,0.954607843 C0.320762117,0.656933529 0.427502028,0.36879408 0.567615469,0.0963529412 C0.546060451,0.169509804 0.522709181,0.242666667 0.504746667,0.317607843 C0.287400237,1.24188235 0.468821637,2.21076471 0.695149324,3.13503922 C0.81190567,3.61145098 0.969975801,4.12711765 1.38490989,4.39298039 C2.02257917,4.79801961 3.00153623,4.44472549 3.52604166,4.99072549 C3.85655193,5.33866667 3.87451445,5.95603922 4.3056148,6.17015686 C4.46601478,6.23961851 4.64358991,6.26011511 4.81575023,6.22903922 C5.95098116,6.06845098 6.61200171,4.80158824 7.70232636,4.44472549 C8.32382937,4.24488235 9.00640493,4.37513725 9.61533419,4.60888235 C9.85912474,4.68360765 10.0777472,4.82304036 10.2476147,5.01213725 C10.606865,5.48141176 10.357186,6.17372549 10.5260337,6.74113725 C10.7613426,7.52980392 11.7097634,7.84384314 12.5306503,7.94554902 C13.3515373,8.0472549 14.2766068,8.10613725 14.8244635,8.7235098 C15.2124538,9.15888235 15.3112476,9.79409804 15.2322126,10.3668627 C15.1846604,10.5669294 15.1846604,10.7752471 15.2322126,10.9753137 C15.4585403,11.6123137 16.5686237,11.5106078 16.8488389,11.0145686 C17.0607966,10.6487843 16.9979278,10.345451 17.4972857,10.2437451 C17.8331847,10.1741569 18.2301563,10.3151176 18.5427041,10.4221765 C19.4304947,10.7260897 20.3668432,10.86579 21.3053388,10.8343529 C22.0723382,10.8075882 22.8698739,10.6559216 23.4734144,10.1812941 C23.7491817,9.96290252 23.9756214,9.68933324 24.1380274,9.37835294 C23.9973331,9.94455629 23.6759598,10.4503285 23.2219392,10.8200784 C22.6183987,11.2911373 21.8226593,11.4481569 21.0538636,11.4731373 C20.115947,11.5047194 19.180161,11.3650122 18.2930251,11.0609608 C17.9786811,10.953902 17.5745245,10.8129412 17.2458105,10.8825294 C16.7464526,10.9842353 16.8093214,11.2875686 16.59916,11.6533529 C16.3081672,12.1565294 15.19988,12.251098 14.9717561,11.614098 C14.9242039,11.4140314 14.9242039,11.2057137 14.9717561,11.0056471 C15.0507912,10.4293137 14.9537936,9.79766667 14.5658033,9.36229412 C14.0161503,8.74670588 13.0910808,8.68782353 12.2701939,8.58611765 C11.449307,8.48441176 10.5008862,8.17037255 10.2673735,7.38170588 C10.0967296,6.8125098 10.3535935,6.12019608 9.9889545,5.65092157 C9.81812001,5.46210548 9.59900939,5.32275732 9.35487772,5.24766667 C8.74594847,5.01392157 8.06337291,4.89080392 7.44186989,5.0835098 C6.34974899,5.44037255 5.6905247,6.71080392 4.55529376,6.86782353 C4.38313344,6.89889943 4.20555832,6.87840283 4.04515834,6.80894118 C3.61405798,6.59482353 3.59609547,5.97745098 3.2655852,5.63129412 C2.74646852,5.08529412 1.7621227,5.43680392 1.12624968,5.03176471 C0.709519336,4.76590196 0.551449205,4.25023529 0.434692859,3.77382353 C0.211957675,2.84776471 0.0305362752,1.87888235 0.249678956,0.954607843 Z" id="Path"></path>
                    </g>
                    <path d="M163.565786,94.7204983 C162.802769,95.7463722 161.931251,96.6956104 161.255736,97.7807029 C160.580222,98.8657953 160.102462,100.132027 160.244215,101.4 C160.94423,100.685894 161.262737,99.7000799 161.703746,98.8048351 C162.449262,97.2895374 163.565786,96.004147 164.503806,94.6107698 C164.678809,94.3442865 165.835584,92.8080881 165.252821,92.7349358 C164.773311,92.6739756 163.826541,94.3704123 163.565786,94.7204983 Z" id="Path" fill="#000000" fill-rule="nonzero" opacity="0.1"></path>
                </g>
            </g>
        </g>
    </g>
</svg>